Data Transformation with dplyr
…
Rows: 142 Columns: 6
── Column specification ─────────────────────────────────────────────────────
Delimiter: ","
chr (2): country, continent
dbl (4): year, pop, lifeExp, gdpPercap

ℹ Use `spec()` to retrieve the full column specification for this data.
ℹ Specify the column types or set `show_col_types = FALSE` to quiet this message.

This time, let’s look more closely at the data. If we type the name
of the object and evaluate it, we’ll see a preview:

gapminder_1997

# A tibble: 142 × 6
   country      year       pop continent lifeExp gdpPercap
   <chr>       <dbl>     <dbl> <chr>       <dbl>     <dbl>
 1 Afghanistan  1997  22227415 Asia         41.8      635.
 2 Albania      1997   3428038 Europe       73.0     3193.
 3 Algeria      1997  29072015 Africa       69.2     4797.
 4 Angola       1997   9875024 Africa       41.0     2277.
 5 Argentina    1997  36203463 Americas     73.3    10967.
 6 Australia    1997  18565243 Oceania      78.8    26998.
 7 Austria      1997   8069876 Europe       77.5    29096.
 8 Bahrain      1997    598561 Asia         73.9    20292.
 9 Bangladesh   1997 123315288 Asia         59.4      973.
10 Belgium      1997  10199787 Europe       77.5    27561.
# ℹ 132 more rows
…
We have a rich dataset whose default ordering is by country. But it’s
natural to ask questions like “What country has the highest life
expectancy?” or “What country had the highest GDP per capita?” The
arrange() function can help us quickly find the
answers.

arrange(gapminder_1997, lifeExp)

# A tibble: 142 × 6
   country          year      pop continent lifeExp gdpPercap
   <chr>           <dbl>    <dbl> <chr>       <dbl>     <dbl>
 1 Rwanda           1997  7212583 Africa       36.1      590.
 2 Sierra Leone     1997  4578212 Africa       39.9      575.
 3 Zambia           1997  9417789 Africa       40.2     1071.
 4 Angola           1997  9875024 Africa       41.0     2277.
 5 Afghanistan      1997 22227415 Asia         41.8      635.
 6 Liberia          1997  2200725 Africa       42.2      609.
 7 Congo Dem. Rep.  1997 47798986 Africa       42.6      312.
 8 Somalia          1997  6633514 Africa       43.8      931.
 9 Uganda           1997 21210254 Africa       44.6      817.
10 Guinea-Bissau    1997  1193708 Africa       44.9      797.
# ℹ 132 more rows

This seems to have done an ascending order on lifeExp by
default. We have some options, one of which is to wrap the column of
interest in the desc() function to indicate we want the
order to be descending.

arrange(gapminder_1997, desc(lifeExp))

# A tibble: 142 × 6
   country          year       pop continent lifeExp gdpPercap
   <chr>           <dbl>     <dbl> <chr>       <dbl>     <dbl>
 1 Japan            1997 125956499 Asia         80.7    28817.
 2 Hong Kong China  1997   6495918 Asia         80      28378.
 3 Sweden           1997   8897619 Europe       79.4    25267.
 4 Switzerland      1997   7193761 Europe       79.4    32135.
 5 Iceland          1997    271192 Europe       79.0    28061.
 6 Australia        1997  18565243 Oceania      78.8    26998.
 7 Italy            1997  57479469 Europe       78.8    24675.
 8 Spain            1997  39855442 Europe       78.8    20445.
 9 France           1997  58623428 Europe       78.6    25890.
10 Canada           1997  30305843 Americas     78.6    28955.
# ℹ 132 more rows

And here we see that Japan is the country with the longest lived
citizens at a little over 80 years.

Checkpoint

Exercise

Which country has the highest GDP per capita in 1997?

arrange(gapminder_1997, desc(gdpPercap))

# A tibble: 142 × 6
   country        year       pop continent lifeExp gdpPercap
   <chr>         <dbl>     <dbl> <chr>       <dbl>     <dbl>
 1 Norway         1997   4405672 Europe       78.3    41283.
 2 Kuwait         1997   1765345 Asia         76.2    40301.
 3 United States  1997 272911760 Americas     76.8    35767.
 4 Singapore      1997   3802309 Asia         77.2    33519.
 5 Switzerland    1997   7193761 Europe       79.4    32135.
 6 Netherlands    1997  15604464 Europe       78.0    30246.
 7 Denmark        1997   5283663 Europe       76.1    29804.
 8 Austria        1997   8069876 Europe       77.5    29096.
 9 Canada         1997  30305843 Americas     78.6    28955.
10 Japan          1997 125956499 Asia         80.7    28817.
# ℹ 132 more rows
…
Sometimes data tables have many columns, and it can be useful to
select only a few of them to export, use downstream, preview, etc. The
select() function works on columns:

select(gapminder_1997, country, year, lifeExp)

# A tibble: 142 × 3
   country      year lifeExp
   <chr>       <dbl>   <dbl>
 1 Afghanistan  1997    41.8
 2 Albania      1997    73.0
 3 Algeria      1997    69.2
 4 Angola       1997    41.0
 5 Argentina    1997    73.3
 6 Australia    1997    78.8
 7 Austria      1997    77.5
 8 Bahrain      1997    73.9
 9 Bangladesh   1997    59.4
10 Belgium      1997    77.5
# ℹ 132 more rows

We can do the equivalent of select() statement using
base R with:

gapminder_1997[ , c('country', 'year', 'lifeExp')]

# A tibble: 142 × 3
   country      year lifeExp
   <chr>       <dbl>   <dbl>
 1 Afghanistan  1997    41.8
 2 Albania      1997    73.0
 3 Algeria      1997    69.2
 4 Angola       1997    41.0
 5 Argentina    1997    73.3
 6 Australia    1997    78.8
 7 Austria      1997    77.5
 8 Bahrain      1997    73.9
 9 Bangladesh   1997    59.4
10 Belgium      1997    77.5
# ℹ 132 more rows
Here we use the square-bracket notation again, leaving the row
position blank returns all rows, and in the column position we specify
the names of the columns as a vector with the c() function,
meaning “combine”, creates a temporary vector of column names. Note that
we quoted the column names in this code, whereas in
select() we didn’t have to.

Checkpoint

Columns can be removed using select() with a “minus” in
front of the column name.

select(gapminder_1997, -year)

# A tibble: 142 × 5
   country           pop continent lifeExp gdpPercap
   <chr>           <dbl> <chr>       <dbl>     <dbl>
 1 Afghanistan  22227415 Asia         41.8      635.
 2 Albania       3428038 Europe       73.0     3193.
 3 Algeria      29072015 Africa       69.2     4797.
 4 Angola        9875024 Africa       41.0     2277.
 5 Argentina    36203463 Americas     73.3    10967.
 6 Australia    18565243 Oceania      78.8    26998.
 7 Austria       8069876 Europe       77.5    29096.
 8 Bahrain        598561 Asia         73.9    20292.
 9 Bangladesh  123315288 Asia         59.4      973.
10 Belgium      10199787 Europe       77.5    27561.
# ℹ 132 more rows

Notice the year column is no longer displayed.

Saving objects

If we view gapminder_1997 we notice haven’t changed the
original data because we haven’t saved the object.

gapminder_1997

# A tibble: 142 × 6
   country      year       pop continent lifeExp gdpPercap
   <chr>       <dbl>     <dbl> <chr>       <dbl>     <dbl>
 1 Afghanistan  1997  22227415 Asia         41.8      635.
 2 Albania      1997   3428038 Europe       73.0     3193.
 3 Algeria      1997  29072015 Africa       69.2     4797.
 4 Angola       1997   9875024 Africa       41.0     2277.
 5 Argentina    1997  36203463 Americas     73.3    10967.
 6 Australia    1997  18565243 Oceania      78.8    26998.
 7 Austria      1997   8069876 Europe       77.5    29096.
 8 Bahrain      1997    598561 Asia         73.9    20292.
 9 Bangladesh   1997 123315288 Asia         59.4      973.
10 Belgium      1997  10199787 Europe       77.5    27561.
# ℹ 132 more rows

To manipulate gapminder_1997 and save it as a new object
we have to assign it a new object name:

gapminder_column_subset = select(gapminder_1997, country, year, lifeExp)
gapminder_column_subset

# A tibble: 142 × 3
   country      year lifeExp
   <chr>       <dbl>   <dbl>
 1 Afghanistan  1997    41.8
 2 Albania      1997    73.0
 3 Algeria      1997    69.2
 4 Angola       1997    41.0
 5 Argentina    1997    73.3
 6 Australia    1997    78.8
 7 Austria      1997    77.5
 8 Bahrain      1997    73.9
 9 Bangladesh   1997    59.4
10 Belgium      1997    77.5
# ℹ 132 more rows
…
a & b
a and b
continent == 'Asia' & continent == 'Africa'

a %in% b
a in b
continent %in% c('Asia', 'Africa')

With these operators in mind we can filter the
gapminder_1997 data table in a variety of ways. To filter
for only the African data we could:

filter(gapminder_1997, continent == 'Africa')

# A tibble: 52 × 6
   country                   year      pop continent lifeExp gdpPercap
   <chr>                    <dbl>    <dbl> <chr>       <dbl>     <dbl>
 1 Algeria                   1997 29072015 Africa       69.2     4797.
 2 Angola                    1997  9875024 Africa       41.0     2277.
 3 Benin                     1997  6066080 Africa       54.8     1233.
 4 Botswana                  1997  1536536 Africa       52.6     8647.
 5 Burkina Faso              1997 10352843 Africa       50.3      946.
 6 Burundi                   1997  6121610 Africa       45.3      463.
 7 Cameroon                  1997 14195809 Africa       52.2     1694.
 8 Central African Republic  1997  3696513 Africa       46.1      741.
 9 Chad                      1997  7562011 Africa       51.6     1005.
10 Comoros                   1997   527982 Africa       60.7     1174.
# ℹ 42 more rows

The base R equivalent of the above uses the square bracket notation
that we saw earlier with a twist:

gapminder_1997[gm97continent == 'Africa', ]

# A tibble: 52 × 6
   country                   year      pop continent lifeExp gdpPercap
   <chr>                    <dbl>    <dbl> <chr>       <dbl>     <dbl>
 1 Algeria                   1997 29072015 Africa       69.2     4797.
 2 Angola                    1997  9875024 Africa       41.0     2277.
 3 Benin                     1997  6066080 Africa       54.8     1233.
 4 Botswana                  1997  1536536 Africa       52.6     8647.
 5 Burkina Faso              1997 10352843 Africa       50.3      946.
 6 Burundi                   1997  6121610 Africa       45.3      463.
 7 Cameroon                  1997 14195809 Africa       52.2     1694.
 8 Central African Republic  1997  3696513 Africa       46.1      741.
 9 Chad                      1997  7562011 Africa       51.6     1005.
10 Comoros                   1997   527982 Africa       60.7     1174.
# ℹ 42 more rows
…
It’s common to use existing columns of a data table to create new
columns. For example, in the gapminder_1997 data we have a
pop column and a gdpPercap column. We could
multiply these two columns to get a new gdp column. The
dplyr function mutate() adds columns to an
existing data table.

mutate(gapminder_1997, gdp = pop * gdpPercap)

# A tibble: 142 × 7
   country      year       pop continent lifeExp gdpPercap           gdp
   <chr>       <dbl>     <dbl> <chr>       <dbl>     <dbl>         <dbl>
 1 Afghanistan  1997  22227415 Asia         41.8      635.  14121995875.
 2 Albania      1997   3428038 Europe       73.0     3193.  10945912519.
 3 Algeria      1997  29072015 Africa       69.2     4797. 139467033682.
 4 Angola       1997   9875024 Africa       41.0     2277.  22486820881.
 5 Argentina    1997  36203463 Americas     73.3    10967. 397053586287.
 6 Australia    1997  18565243 Oceania      78.8    26998. 501223252921.
 7 Austria      1997   8069876 Europe       77.5    29096. 234800471832.
 8 Bahrain      1997    598561 Asia         73.9    20292.  12146009862.
 9 Bangladesh   1997 123315288 Asia         59.4      973. 119957417048.
10 Belgium      1997  10199787 Europe       77.5    27561. 281118335091.
# ℹ 132 more rows

As before, this didn’t actually add the column to
gapminder_1997, we have to save the object to store it:

gapminder_gdp_1997 = mutate(gapminder_1997, gdp = pop * gdpPercap)
gapminder_gdp_1997

# A tibble: 142 × 7
   country      year       pop continent lifeExp gdpPercap           gdp
   <chr>       <dbl>     <dbl> <chr>       <dbl>     <dbl>         <dbl>
 1 Afghanistan  1997  22227415 Asia         41.8      635.  14121995875.
 2 Albania      1997   3428038 Europe       73.0     3193.  10945912519.
 3 Algeria      1997  29072015 Africa       69.2     4797. 139467033682.
 4 Angola       1997   9875024 Africa       41.0     2277.  22486820881.
 5 Argentina    1997  36203463 Americas     73.3    10967. 397053586287.
 6 Australia    1997  18565243 Oceania      78.8    26998. 501223252921.
 7 Austria      1997   8069876 Europe       77.5    29096. 234800471832.
 8 Bahrain      1997    598561 Asia         73.9    20292.  12146009862.
 9 Bangladesh   1997 123315288 Asia         59.4      973. 119957417048.
10 Belgium      1997  10199787 Europe       77.5    27561. 281118335091.
# ℹ 132 more rows
…
