Data Visualization with ggplot
…
ℹ Use `spec()` to retrieve the full column specification for this data.
ℹ Specify the column types or set `show_col_types = FALSE` to quiet this message.

Let’s look at a preview of the data and explore some functions to see
its attributes. First, we can preview it by evaluating a line of code
which just names the object:

gm

# A tibble: 1,704 × 6
   country      year      pop continent lifeExp gdpPercap
   <chr>       <dbl>    <dbl> <chr>       <dbl>     <dbl>
 1 Afghanistan  1952  8425333 Asia         28.8      779.
 2 Afghanistan  1957  9240934 Asia         30.3      821.
 3 Afghanistan  1962 10267083 Asia         32.0      853.
 4 Afghanistan  1967 11537966 Asia         34.0      836.
 5 Afghanistan  1972 13079460 Asia         36.1      740.
 6 Afghanistan  1977 14880372 Asia         38.4      786.
 7 Afghanistan  1982 12881816 Asia         39.9      978.
 8 Afghanistan  1987 13867957 Asia         40.8      852.
 9 Afghanistan  1992 16317921 Asia         41.7      649.
10 Afghanistan  1997 22227415 Asia         41.8      635.
# ℹ 1,694 more rows
…
That seems clear enough. Of course, this is for all countries
combined. We could add continent as an additional group:

gm %>% group_by(year, continent) %>% summarize(mean_life_exp = mean(lifeExp))

`summarise()` has grouped output by 'year'. You can override using the
`.groups` argument.

# A tibble: 60 × 3
# Groups:   year [12]
    year continent mean_life_exp
   <dbl> <chr>             <dbl>
 1  1952 Africa             39.1
 2  1952 Americas           53.3
 3  1952 Asia               46.3
 4  1952 Europe             64.4
 5  1952 Oceania            69.3
 6  1957 Africa             41.3
 7  1957 Americas           56.0
 8  1957 Asia               49.3
 9  1957 Europe             66.7
10  1957 Oceania            70.3
# ℹ 50 more rows
Exercise

The above code is ordered by year, but to see the continent-wise
trend, it would be easier to see the data arranged by continent, how
would we rearrange the rows by continent?

gm %>% 
    group_by(year, continent) %>% 
    summarize(mean_life_exp = mean(lifeExp)) %>% 
    arrange(continent)

`summarise()` has grouped output by 'year'. You can override using the
`.groups` argument.

# A tibble: 60 × 3
# Groups:   year [12]
    year continent mean_life_exp
   <dbl> <chr>             <dbl>
 1  1952 Africa             39.1
 2  1957 Africa             41.3
 3  1962 Africa             43.3
 4  1967 Africa             45.3
 5  1972 Africa             47.5
 6  1977 Africa             49.6
 7  1982 Africa             51.6
 8  1987 Africa             53.3
 9  1992 Africa             53.6
10  1997 Africa             53.6
# ℹ 50 more rows
…
First, let’s look at ?factor. It takes a character
vector (exactly what the continent column is), and an
optional levels character vector which dictates the
categories and their desired order.

gm_factor = gm97 %>% 
    mutate(continent_factor = factor(continent, levels = c('Oceania', 'Africa', 'Asia', 'Americas', 'Europe')))

Let’s take a look at the new object and see how it’s different.

gm_factor

# A tibble: 142 × 7
   country      year       pop continent lifeExp gdpPercap continent_factor
   <chr>       <dbl>     <dbl> <chr>       <dbl>     <dbl> <fct>           
 1 Afghanistan  1997  22227415 Asia         41.8      635. Asia            
 2 Albania      1997   3428038 Europe       73.0     3193. Europe          
 3 Algeria      1997  29072015 Africa       69.2     4797. Africa          
 4 Angola       1997   9875024 Africa       41.0     2277. Africa          
 5 Argentina    1997  36203463 Americas     73.3    10967. Americas        
 6 Australia    1997  18565243 Oceania      78.8    26998. Oceania         
 7 Austria      1997   8069876 Europe       77.5    29096. Europe          
 8 Bahrain      1997    598561 Asia         73.9    20292. Asia            
 9 Bangladesh   1997 123315288 Asia         59.4      973. Asia            
10 Belgium      1997  10199787 Europe       77.5    27561. Europe          
# ℹ 132 more rows
…
library(ggrepel)

gm97_labels = gm97 %>% 
    mutate(label = ifelse(country %in% c('Brazil', 'China', 'India', 'United States'), country, ''))

What have we done here? We’ve used the mutate() function
to create a new column called label, and the criteria for the entries
are, if the entry from the country column is in the set
c('Brazil', 'China', 'India', 'United Staets'), then pass
on the country name, otherwise give it an empty string ''.
How can we be sure that we’ve done the right thing?

gm97_labels

# A tibble: 142 × 7
   country      year       pop continent lifeExp gdpPercap label
   <chr>       <dbl>     <dbl> <chr>       <dbl>     <dbl> <chr>
 1 Afghanistan  1997  22227415 Asia         41.8      635. ""   
 2 Albania      1997   3428038 Europe       73.0     3193. ""   
 3 Algeria      1997  29072015 Africa       69.2     4797. ""   
 4 Angola       1997   9875024 Africa       41.0     2277. ""   
 5 Argentina    1997  36203463 Americas     73.3    10967. ""   
 6 Australia    1997  18565243 Oceania      78.8    26998. ""   
 7 Austria      1997   8069876 Europe       77.5    29096. ""   
 8 Bahrain      1997    598561 Asia         73.9    20292. ""   
 9 Bangladesh   1997 123315288 Asia         59.4      973. ""   
10 Belgium      1997  10199787 Europe       77.5    27561. ""   
# ℹ 132 more rows
…
What two African countries seemed to experience strong GDP per
capita growth through 1980, only to drop off?

What two European countries overtake the long-leading GDP per capita
country in 2007?

All of these questions are suggested by looking at the plot, but we
can answer them with the dplyr functions we’ve learned.

To find the Asian country of interest, we could simply find the
country with the highest GDP per capita in 1952.

gm %>% filter(year == 1952) %>% arrange(desc(gdpPercap))

# A tibble: 142 × 6
   country         year       pop continent lifeExp gdpPercap
   <chr>          <dbl>     <dbl> <chr>       <dbl>     <dbl>
 1 Kuwait          1952    160000 Asia         55.6   108382.
 2 Switzerland     1952   4815000 Europe       69.6    14734.
 3 United States   1952 157553000 Americas     68.4    13990.
 4 Canada          1952  14785584 Americas     68.8    11367.
 5 New Zealand     1952   1994794 Oceania      69.4    10557.
 6 Norway          1952   3327728 Europe       72.7    10095.
 7 Australia       1952   8691212 Oceania      69.1    10040.
 8 United Kingdom  1952  50430000 Europe       69.2     9980.
 9 Bahrain         1952    120447 Asia         50.9     9867.
10 Denmark         1952   4334000 Europe       70.8     9692.
# ℹ 132 more rows

We can actually use a similar tactic for this question, but we can
pick any year based on the plot, and we must filter on the correct
continent. Then we can observe the top two rows.

gm %>% filter(year == 2007 & continent == 'Americas') %>% arrange(desc(gdpPercap))

# A tibble: 25 × 6
   country              year       pop continent lifeExp gdpPercap
   <chr>               <dbl>     <dbl> <chr>       <dbl>     <dbl>
 1 United States        2007 301139947 Americas     78.2    42952.
 2 Canada               2007  33390141 Americas     80.7    36319.
 3 Puerto Rico          2007   3942491 Americas     78.7    19329.
 4 Trinidad and Tobago  2007   1056608 Americas     69.8    18009.
 5 Chile                2007  16284741 Americas     78.6    13172.
 6 Argentina            2007  40301927 Americas     75.3    12779.
 7 Mexico               2007 108700891 Americas     76.2    11978.
 8 Venezuela            2007  26084662 Americas     73.7    11416.
 9 Uruguay              2007   3447496 Americas     76.4    10611.
10 Panama               2007   3242173 Americas     75.5     9809.
# ℹ 15 more rows

We can use a similar approach as 2, but filter on the African
countries, and look at the top two results.

gm %>% filter(year == 1977 & continent == 'Africa') %>% arrange(desc(gdpPercap))

# A tibble: 52 × 6
   country       year      pop continent lifeExp gdpPercap
   <chr>        <dbl>    <dbl> <chr>       <dbl>     <dbl>
 1 Libya         1977  2721783 Africa       57.4    21951.
 2 Gabon         1977   706367 Africa       52.8    21746.
 3 South Africa  1977 27129932 Africa       55.5     8029.
 4 Algeria       1977 17152804 Africa       58.0     4910.
 5 Reunion       1977   492095 Africa       67.1     4320.
 6 Namibia       1977   977026 Africa       56.4     3876.
 7 Swaziland     1977   551425 Africa       52.5     3781.
 8 Mauritius     1977   913025 Africa       64.9     3711.
 9 Congo Rep.    1977  1536769 Africa       55.6     3259.
10 Botswana      1977   781472 Africa       59.3     3215.
# ℹ 42 more rows

And again, but look at the top three results.

gm %>% filter(year == 2007 & continent == 'Europe') %>% arrange(desc(gdpPercap))

# A tibble: 30 × 6
   country      year      pop continent lifeExp gdpPercap
   <chr>       <dbl>    <dbl> <chr>       <dbl>     <dbl>
 1 Norway       2007  4627926 Europe       80.2    49357.
 2 Ireland      2007  4109086 Europe       78.9    40676.
 3 Switzerland  2007  7554661 Europe       81.7    37506.
 4 Netherlands  2007 16570613 Europe       79.8    36798.
 5 Iceland      2007   301931 Europe       81.8    36181.
 6 Austria      2007  8199783 Europe       79.8    36126.
 7 Denmark      2007  5468120 Europe       78.3    35278.
 8 Sweden       2007  9031088 Europe       80.9    33860.
 9 Belgium      2007 10392226 Europe       79.4    33693.
10 Finland      2007  5238460 Europe       79.3    33207.
# ℹ 20 more rows
…
